<svg width="277" height="331" viewBox="0 0 277 331" fill="none" xmlns="http://www.w3.org/2000/svg">
<g opacity="0.4">
<path opacity="0.4" d="M157.614 331C91.6783 331 38.2271 277.606 38.2271 211.742C38.2271 145.877 91.6783 92.4832 157.614 92.4832C223.549 92.4832 277 145.877 277 211.742C277 277.606 223.549 331 157.614 331Z" fill="#DEDEDE"/>
</g>
<g opacity="0.9">
<path d="M109.883 16.0036L121.437 47.5494C122.515 50.6271 120.974 54.1664 117.893 55.2435L90.319 65.3997C87.2381 66.4769 83.695 64.9381 82.6167 61.8605L69.9848 27.3909C68.9065 24.3133 70.4469 20.774 73.5279 19.6968L97.4052 10.9255" fill="white"/>
<path d="M109.267 16.1575C112.656 25.3904 116.045 34.6234 119.434 43.8563C119.896 45.0873 120.358 46.4723 120.82 47.7033C121.899 50.9348 120.204 53.7047 117.123 54.7819C112.194 56.6285 107.418 58.3212 102.489 60.1678C98.3294 61.7066 94.3242 63.3993 90.1649 64.6303C84.1571 66.6308 82.7706 60.0139 81.2302 56.013C77.6871 46.4723 73.8359 36.9316 70.6009 27.237C69.5226 24.0055 71.2171 21.2356 74.2981 20.1585C76.4547 19.3891 78.4573 18.6196 80.614 17.8502C85.8516 15.8498 91.2432 14.0032 96.4808 12.0027C96.7889 11.8488 97.2511 11.695 97.5592 11.5411C98.3294 11.2333 98.0213 9.84838 97.2511 10.1561C92.6297 11.8488 88.0082 13.5415 83.5409 15.2342C80.768 16.3114 77.9952 17.2347 75.2224 18.3119C73.2197 19.0813 71.3712 19.6968 70.1388 21.5434C67.52 25.3904 70.4469 30.4686 71.8333 34.1617C74.144 40.4709 76.4547 46.78 78.7654 52.9353C79.6897 55.2435 80.4599 57.5518 81.3842 60.0139C82.0004 61.5527 82.4626 63.2454 83.6949 64.4765C87.7002 68.3235 93.3999 64.9381 97.5592 63.3993C103.567 61.2449 109.421 59.0906 115.429 56.7824C116.969 56.1668 118.818 55.7052 120.05 54.628C122.361 52.6275 122.977 49.7038 122.053 46.9339C118.51 36.7777 114.658 26.7754 110.961 16.6192C110.807 16.3114 110.653 16.0037 110.653 15.6959C110.191 15.0804 108.959 15.3881 109.267 16.1575Z" fill="#323F5A"/>
<path d="M97.7132 11.541L100.178 18.004C100.486 18.7735 101.256 19.0812 102.027 18.9273L108.959 16.4652C109.883 16.1575 109.883 14.7725 108.959 14.4648L98.9456 10.4638C98.1754 10.0022 97.4051 10.7716 97.7132 11.541Z" fill="#F5B900"/>
<path d="M88.2101 32.5463L80.6907 35.3037L83.4511 42.8151L90.9705 40.0576L88.2101 32.5463Z" fill="white"/>
<path d="M80.768 36.0083C83.2327 35.085 85.8515 34.1617 88.3163 33.2384C88.0082 33.0846 87.7001 32.9307 87.392 32.7768C88.3163 35.2389 89.2406 37.8549 90.1648 40.317C90.3189 40.0092 90.4729 39.7015 90.627 39.3937C88.1622 40.317 85.5434 41.2403 83.0787 42.1636C83.3868 42.3175 83.6949 42.4714 84.003 42.6252C83.0787 40.1631 82.1544 37.5471 81.2301 35.085C80.922 34.3156 79.5356 34.6234 79.8437 35.3928C80.768 37.8549 81.6922 40.4709 82.6165 42.933C82.7706 43.2408 83.0787 43.5485 83.5408 43.3947C86.0056 42.4714 88.6244 41.5481 91.0891 40.6248C91.3972 40.4709 91.7053 40.1631 91.5513 39.7015C90.627 37.2394 89.7027 34.6234 88.7784 32.1613C88.6244 31.8535 88.3163 31.5457 87.8541 31.6996C85.3894 32.6229 82.7706 33.5462 80.3058 34.4695C79.6896 34.9311 79.9977 36.3161 80.768 36.0083Z" fill="#323F5A"/>
<path d="M83.3868 38.7782C84.157 39.2398 84.9273 39.5476 85.6975 40.0092C86.1597 40.1631 86.6218 40.0092 86.7758 39.5476C87.0839 38.4704 87.392 37.3933 87.8542 36.1622C87.8542 36.0083 88.0082 35.8544 88.0082 35.7006C88.1623 35.3928 87.8542 34.9311 87.5461 34.7773C87.238 34.6234 86.7758 34.9311 86.6218 35.2389C86.3137 36.3161 86.0056 37.3933 85.5435 38.6243C85.5435 38.7782 85.3894 38.9321 85.3894 39.086C85.6975 38.9321 86.0056 38.7782 86.4677 38.6243C85.6975 38.1627 84.9273 37.8549 84.157 37.3933C83.8489 37.2394 83.3868 37.2394 83.2328 37.701C82.9247 38.1627 83.0787 38.6243 83.3868 38.7782Z" fill="#3F4FD3"/>
<path d="M94.9404 35.3927C98.7916 34.0078 102.643 32.6228 106.494 31.2379C107.11 31.084 107.572 30.7763 108.188 30.6224C108.959 30.3146 108.651 28.9297 107.88 29.2374C104.029 30.6224 100.178 32.0073 96.3268 33.3923C95.7106 33.5461 95.2485 33.8539 94.6323 34.0078C93.708 34.3155 94.0161 35.7005 94.9404 35.3927Z" fill="#3F4FD3"/>
<path d="M93.1586 46.0939L85.6392 48.8513L88.3996 56.3627L95.919 53.6052L93.1586 46.0939Z" fill="white"/>
<path d="M85.8516 49.5498C88.3163 48.6265 90.9351 47.7032 93.3999 46.7799C93.0918 46.6261 92.7837 46.4722 92.4756 46.3183C93.3999 48.7804 94.3242 51.3964 95.2485 53.8585C95.4025 53.5507 95.5565 53.243 95.7106 52.9352C93.2458 53.8585 90.627 54.7818 88.1623 55.7051C88.4704 55.859 88.7785 56.0129 89.0866 56.1667C88.1623 53.7046 87.238 51.0886 86.3137 48.6265C86.0056 47.8571 84.6192 48.1649 84.9273 48.9343C85.8516 51.3964 86.7759 54.0124 87.7002 56.4745C87.8542 56.7823 88.1623 57.09 88.6244 56.9362C91.0892 56.0129 93.708 55.0896 96.1727 54.1663C96.4808 54.0124 96.7889 53.7046 96.6349 53.243C95.7106 50.7809 94.7863 48.1649 93.862 45.7028C93.708 45.395 93.3999 45.0872 92.9378 45.2411C90.473 46.1644 87.8542 47.0877 85.3895 48.011C84.6192 48.4726 84.9273 49.8576 85.8516 49.5498Z" fill="#323F5A"/>
<path d="M88.3164 52.3197C89.0866 52.7813 89.8568 53.0891 90.6271 53.5507C91.0892 53.7046 91.5514 53.5507 91.7054 53.0891C92.0135 52.0119 92.3216 50.9348 92.7837 49.7037C92.7837 49.5498 92.9378 49.3959 92.9378 49.2421C93.0918 48.9343 92.7837 48.4726 92.4756 48.3188C92.1675 48.1649 91.7054 48.4726 91.5514 48.7804C91.2433 49.8576 90.9352 50.9348 90.473 52.1658C90.473 52.3197 90.319 52.4736 90.319 52.6275C90.6271 52.4736 90.9352 52.3197 91.3973 52.1658C90.6271 51.7042 89.8568 51.3964 89.0866 50.9348C88.7785 50.7809 88.3164 50.7809 88.1623 51.2425C87.8542 51.7042 88.0083 52.1658 88.3164 52.3197Z" fill="#3F4FD3"/>
<path d="M99.8698 48.7807C103.721 47.3957 107.572 46.0108 111.423 44.6258C112.04 44.472 112.502 44.1642 113.118 44.0103C113.888 43.7026 113.58 42.3176 112.81 42.6254C108.959 44.0103 105.107 45.3953 101.256 46.7802C100.64 46.9341 100.178 47.2418 99.5617 47.3957C98.6375 47.8574 98.9456 49.0884 99.8698 48.7807Z" fill="#3F4FD3"/>
</g>
<g opacity="0.7">
<path d="M89.1109 113.565L61.6906 108.641C60.6123 108.487 59.842 107.41 59.9961 106.178L64.4634 81.8651C64.6175 80.788 65.6958 80.0186 66.9282 80.1724L94.3486 85.0967C95.4269 85.2505 96.1971 86.3277 96.0431 87.5588L91.5757 111.872C91.4217 113.103 90.3433 113.873 89.1109 113.565Z" fill="white"/>
<path d="M89.265 112.949C81.5627 111.564 73.8603 110.179 66.158 108.794C64.9256 108.487 63.3851 108.487 62.1527 108.025C60.6123 107.563 60.6123 106.64 60.7663 105.409C61.5366 101.1 62.3068 96.7916 63.077 92.6368C63.5392 90.4824 63.8473 88.1742 64.3094 86.0199C64.4634 84.7888 64.6175 83.4039 64.9256 82.3267C65.5418 80.4801 66.7741 81.0956 68.1606 81.2495C70.0091 81.5573 71.8577 81.865 73.7063 82.3267C78.4817 83.25 83.2572 84.0194 88.0326 84.9427C89.7271 85.2505 91.2676 85.5582 92.9621 85.866C94.1945 86.0199 95.2728 86.6354 94.9647 88.0203C94.5026 92.4829 93.2702 97.0994 92.5 101.562C92.0378 104.024 91.5757 106.486 91.1136 108.948C90.8055 110.333 90.8055 113.257 88.8029 113.103C87.8786 113.103 87.8786 114.488 88.8029 114.488C90.9595 114.642 91.7298 113.103 92.0379 111.256C92.346 109.256 92.8081 107.256 93.1162 105.409C94.0405 100.331 94.9648 95.2528 95.889 90.1747C96.0431 88.9436 96.6593 87.5587 96.0431 86.3276C95.4269 84.9427 94.0405 84.7888 92.654 84.481C87.8786 83.5578 83.1031 82.7883 78.4817 81.865C74.6305 81.0956 70.7794 80.3262 66.9282 79.7107C63.077 79.0952 63.077 84.1733 62.6149 86.7893C61.6906 92.0213 60.7663 97.0994 59.842 102.331C59.3799 104.947 57.9935 108.64 61.8446 109.564C70.7794 111.41 79.8681 112.795 88.8029 114.488C89.8812 114.488 90.1893 113.103 89.265 112.949Z" fill="#323F5A"/>
<path d="M89.8811 87.405L88.3407 87.0972C87.8785 86.9434 87.5704 86.4817 87.5704 86.0201L88.3407 81.5575C88.4947 81.0959 88.9569 80.7881 89.419 80.7881L90.9595 81.0959C91.4216 81.2497 91.7297 81.7114 91.7297 82.173L90.9595 86.6356C90.8054 87.2511 90.3433 87.5589 89.8811 87.405Z" fill="#3F4FD3"/>
<path d="M63.6932 86.0199C72.936 87.7126 82.0248 89.4053 91.2676 90.9441C92.6541 91.2519 93.8864 91.4058 95.2728 91.7135C96.1971 91.8674 96.5052 90.4825 95.5809 90.3286C86.3381 88.6359 77.2493 86.9432 68.0065 85.4044C66.6201 85.0966 65.3877 84.9427 64.0013 84.635C63.2311 84.4811 62.7689 85.866 63.6932 86.0199Z" fill="#323F5A"/>
<path d="M71.7036 84.1733L70.1632 83.8656C69.701 83.7117 69.3929 83.25 69.3929 82.7884L70.1632 78.3258C70.3172 77.8642 70.7794 77.5564 71.2415 77.5564L72.782 77.8642C73.2441 78.018 73.5522 78.4797 73.5522 78.9413L72.782 83.4039C72.6279 83.8656 72.1658 84.3272 71.7036 84.1733Z" fill="#3F4FD3"/>
<path d="M87.2624 95.7145L86.03 93.8679C85.8759 93.5601 85.5678 93.4062 85.2598 93.4062C84.9517 93.4062 84.6436 93.4062 84.4895 93.5601L75.8629 99.5615L73.2441 95.7145C73.0901 95.4067 72.782 95.2528 72.4739 95.2528C72.1658 95.2528 71.8577 95.2528 71.7036 95.4067L69.8551 96.6378C69.547 96.7916 69.3929 97.0994 69.3929 97.4072C69.3929 97.7149 69.3929 98.0227 69.547 98.1766L72.782 102.947L74.0143 104.794C74.1684 105.101 74.4765 105.255 74.7846 105.255C75.0927 105.255 75.4008 105.255 75.5548 105.101L77.4034 103.87L86.9543 97.2533C87.2624 97.0994 87.4164 96.7917 87.4164 96.4839C87.5705 96.1761 87.4164 95.8684 87.2624 95.7145Z" fill="#F5B900"/>
</g>
<g opacity="0.7">
<path d="M96.0881 180.811C105.362 180.811 112.879 173.302 112.879 164.038C112.879 154.774 105.362 147.265 96.0881 147.265C86.8146 147.265 79.297 154.774 79.297 164.038C79.297 173.302 86.8146 180.811 96.0881 180.811Z" fill="white"/>
<path d="M112.109 165.885C111.185 172.502 106.409 178.195 99.7853 179.734C93.3154 181.273 86.2292 178.503 82.5321 172.809C78.8349 166.962 79.143 159.268 83.4563 153.882C87.6156 148.804 94.7018 146.65 101.018 148.65C108.412 150.958 112.879 158.345 111.955 166.039C111.801 166.962 113.187 166.962 113.341 166.039C114.112 158.806 110.415 151.574 103.791 148.342C97.3206 145.111 89.3101 146.342 83.9185 151.266C78.6809 156.19 76.9864 164.192 79.9133 170.963C82.8402 177.734 89.9263 182.042 97.1665 181.427C105.485 180.811 112.263 174.348 113.341 166.193C113.496 165.423 112.263 164.961 112.109 165.885Z" fill="#323F5A"/>
<path d="M96.5503 154.19C96.2422 157.113 95.78 159.883 95.4719 162.807C95.4719 163.269 95.3179 163.577 95.3179 164.038C95.3179 164.346 95.626 164.654 95.9341 164.654C96.3962 164.654 96.5503 164.346 96.5503 164.038C96.8584 161.114 97.3205 158.345 97.6286 155.421C97.6286 154.959 97.7826 154.651 97.7826 154.19C97.7826 153.882 97.4746 153.574 97.1665 153.574C96.8584 153.574 96.5503 153.882 96.5503 154.19Z" fill="#3F4FD3"/>
<path d="M103.328 164.192C101.172 163.884 99.015 163.73 97.0124 163.423C96.7043 163.423 96.3962 163.423 96.0881 163.269C95.78 163.269 95.4719 163.577 95.4719 164.038C95.4719 164.5 95.78 164.654 96.0881 164.654C98.2448 164.962 100.401 165.115 102.404 165.423C102.712 165.423 103.02 165.423 103.328 165.577C103.636 165.577 103.944 165.269 103.944 164.961C104.099 164.5 103.636 164.192 103.328 164.192Z" fill="#3F4FD3"/>
</g>
<path d="M193.044 91.7136C193.044 91.7136 216.151 107.102 216.151 164.038C216.151 164.038 216.922 189.121 193.044 192.352C193.044 192.352 176.869 194.045 179.95 177.118C183.031 160.191 183.031 149.419 183.031 149.419C183.031 149.419 196.896 141.725 190.734 129.415C190.734 129.415 189.193 126.337 181.491 129.415C181.491 129.415 170.708 127.876 166.086 115.565C161.465 103.255 159.924 97.0995 159.924 97.0995C159.924 97.0995 138.358 114.026 138.358 121.721C138.358 129.415 136.817 147.881 139.898 152.497C142.979 157.113 144.52 172.502 163.005 170.963C163.005 170.963 175.329 183.273 159.924 186.351C144.52 189.429 134.198 193.737 131.734 192.352C129.269 190.967 119.872 190.967 124.494 177.118C129.115 163.269 141.439 158.652 135.277 146.342C129.115 134.031 122.953 110.949 130.655 98.6383C138.358 86.3277 164.546 74.0172 193.044 91.7136Z" fill="#192244"/>
<path d="M214.457 177.887C219.386 181.119 224.316 184.504 229.399 187.736C233.405 190.352 237.41 192.968 240.953 196.045C244.496 199.123 247.423 202.97 249.117 207.279C250.966 211.741 251.428 216.666 251.582 221.436C251.736 227.13 251.428 232.823 251.12 238.517C250.966 244.057 250.966 249.596 250.504 255.136C250.042 259.291 248.655 263.292 244.958 265.6C241.569 267.754 237.102 268.216 233.097 267.908C222.467 267.447 212.146 262.984 204.29 255.598C203.674 254.982 204.598 254.059 205.214 254.674C211.992 260.984 220.619 265.138 229.862 266.216C234.021 266.677 238.642 266.831 242.647 265.138C247.269 262.984 248.809 258.675 249.117 253.905C249.426 248.827 249.426 243.595 249.734 238.517C249.888 233.439 250.196 228.514 250.196 223.436C250.196 218.666 249.888 213.896 248.501 209.433C247.115 204.817 244.342 200.97 240.953 197.738C237.256 194.353 232.943 191.583 228.783 188.813C223.854 185.581 218.924 182.196 213.841 178.965C213.07 178.503 213.687 177.272 214.457 177.887Z" fill="#192244"/>
<path d="M211.684 227.899C210.144 235.132 208.449 242.21 206.909 249.443C206.755 250.366 205.368 249.904 205.522 249.135C207.063 241.902 208.757 234.824 210.298 227.591C210.606 226.668 211.838 227.13 211.684 227.899Z" fill="#192244"/>
<path d="M187.345 190.198C185.034 194.814 179.488 196.815 174.559 196.046C168.551 195.122 163.93 190.506 160.541 185.889C160.078 185.12 161.157 184.504 161.773 185.12C164.854 189.429 169.013 193.583 174.251 194.507C178.718 195.43 183.956 193.737 186.112 189.429C186.574 188.659 187.807 189.275 187.345 190.198Z" fill="#192244"/>
<path d="M183.802 202.355C178.718 203.586 173.634 204.355 168.859 201.585C164.546 198.969 160.232 195.738 156.997 191.891C156.381 191.275 157.46 190.198 157.922 190.967C160.849 194.661 164.7 197.43 168.705 200.046C170.862 201.431 173.018 202.355 175.637 202.355C178.256 202.355 180.721 201.739 183.339 201.277C184.418 200.816 184.726 202.201 183.802 202.355Z" fill="#192244"/>
<path d="M116.175 226.052C115.405 222.513 116.637 219.128 117.869 215.742C118.948 212.665 120.334 209.587 121.875 206.509C124.956 200.662 128.961 195.276 134.198 191.275C134.969 190.814 135.585 191.891 134.969 192.506C130.039 196.199 126.188 201.277 123.415 206.817C122.029 209.433 120.796 212.357 119.718 215.127C118.486 218.512 116.945 222.205 117.715 225.745C117.715 226.514 116.483 226.822 116.175 226.052Z" fill="#192244"/>
<path d="M233.867 302.532C234.021 299.608 234.021 296.838 234.329 293.914C234.637 291.145 235.099 288.221 235.561 285.451C235.715 284.528 236.948 284.989 236.948 285.759C236.486 288.529 236.023 291.298 235.869 293.914C235.561 296.684 235.561 299.608 235.561 302.378C235.253 303.455 233.867 303.455 233.867 302.532Z" fill="#192244"/>
<path d="M114.788 251.597C114.788 254.521 118.023 254.982 120.334 255.136C122.491 255.29 124.493 255.444 126.65 255.444C130.963 255.752 135.123 255.906 139.436 256.213C139.744 256.213 140.052 256.521 140.052 256.829C140.36 269.755 140.668 282.681 140.976 295.607C141.131 302.224 140.976 308.995 145.29 314.535C147.292 316.997 149.603 319.305 152.068 321.459C154.687 323.767 157.614 325.922 161.003 326.999C167.01 329.153 174.251 328.999 180.413 327.922C181.337 327.768 181.645 329.153 180.721 329.307C175.021 330.384 168.859 330.384 163.159 329.153C156.689 327.768 151.76 323.306 147.292 318.843C144.982 316.535 142.825 314.073 141.593 310.995C140.36 308.072 140.052 304.84 139.744 301.762C139.282 294.838 139.282 287.759 139.282 280.681C139.128 272.679 138.974 264.677 138.666 256.829C138.974 256.983 139.128 257.29 139.436 257.444C133.736 257.137 127.882 256.829 122.183 256.367C118.794 256.213 113.556 255.906 113.402 251.289C113.402 250.674 114.788 250.674 114.788 251.597Z" fill="#192244"/>
<path d="M239.875 267.447C238.796 272.833 237.102 277.757 235.099 282.835C233.405 287.298 231.71 291.606 229.554 295.761C225.24 304.071 218.77 311.919 209.527 314.535C204.752 315.92 199.668 315.458 195.355 313.15C191.042 310.688 187.653 306.687 184.572 302.84C176.407 292.684 168.089 282.681 159.924 272.525C156.381 268.062 152.684 263.6 149.911 258.522C148.525 255.906 147.447 252.52 143.749 253.444C141.593 253.905 139.898 254.367 137.742 254.059C133.89 253.29 130.347 250.52 128.807 246.981C127.883 244.826 128.037 242.826 128.037 240.671C128.037 239.133 127.883 236.671 126.034 236.209C124.648 235.901 123.877 237.44 122.645 237.748C118.332 239.133 116.945 232.67 117.715 229.9C118.948 225.437 123.723 222.052 127.883 220.359C132.042 218.512 136.817 217.897 140.823 220.359C144.828 222.821 146.83 227.284 148.833 231.285C157.922 249.597 173.326 264.523 191.812 273.141C194.277 274.218 196.742 275.295 199.36 276.218C199.052 276.372 198.744 276.526 198.436 276.68C199.823 269.447 200.439 262.215 203.982 255.598C204.444 254.829 205.522 255.444 205.214 256.367C201.671 262.984 201.209 269.909 199.823 277.141C199.823 277.449 199.36 277.757 198.898 277.603C181.491 271.294 166.086 259.753 155.303 244.672C152.684 240.979 150.219 237.132 148.217 233.131C146.06 228.976 144.212 223.898 140.052 221.59C135.123 218.82 129.115 220.975 124.956 223.898C122.953 225.283 120.796 227.13 119.718 229.438C119.102 230.823 118.794 232.208 119.102 233.747C119.256 234.362 119.41 234.978 119.872 235.439C120.488 236.363 121.413 236.824 122.645 236.671C122.953 236.363 123.261 236.209 123.723 235.901C126.804 233.747 129.577 236.671 129.731 240.056C129.885 242.518 129.423 244.826 130.501 247.135C131.426 249.135 133.12 250.828 135.123 251.905C137.125 252.982 139.59 253.598 141.901 253.136C143.903 252.674 145.752 251.751 147.601 252.828C148.987 253.751 149.911 255.29 150.527 256.675C151.914 259.291 153.3 261.753 155.149 264.215C158.538 269.14 162.543 273.602 166.24 278.219C169.937 282.835 173.635 287.298 177.332 291.914C181.029 296.377 184.572 300.993 188.423 305.456C191.658 309.303 195.509 312.996 200.593 314.073C212.146 316.689 222.005 307.148 227.243 298.069C229.862 293.453 231.864 288.683 233.713 283.758C235.715 278.373 237.564 273.141 238.796 267.601C238.796 266.216 240.029 266.524 239.875 267.447Z" fill="#192244"/>
<path d="M168.397 230.053C164.994 230.053 162.235 227.298 162.235 223.898C162.235 220.499 164.994 217.743 168.397 217.743C171.8 217.743 174.559 220.499 174.559 223.898C174.559 227.298 171.8 230.053 168.397 230.053Z" fill="#F5B900"/>
<path d="M159.14 137.391C159.14 137.53 159.14 137.391 159.14 137.391C159.324 137.53 159.14 137.391 159.14 137.391H159.324H159.508C159.324 137.391 159.508 137.391 159.508 137.391C159.508 137.391 159.508 137.391 159.692 137.391C160.06 137.252 160.244 137.113 160.612 137.113C161.164 136.974 161.9 136.974 162.452 137.252C163.556 137.669 164.108 138.64 163.924 139.473C163.74 140.445 162.452 140.861 161.348 141C160.244 141 159.14 140.584 158.588 139.751C158.037 138.918 158.221 137.807 158.772 137.113C159.508 136.28 160.98 135.725 162.268 136.142C163.004 136.419 163.372 136.836 163.74 137.391C163.924 137.946 164.108 138.501 163.924 139.057C163.74 140.028 162.636 140.861 161.164 141C159.876 141 158.772 140.167 158.772 139.195C158.772 138.224 160.06 137.391 161.532 137.669C161.9 137.807 162.268 137.946 162.452 138.085C162.82 138.363 162.82 138.779 162.452 138.918C162.084 139.195 161.532 139.195 161.348 138.918C161.348 138.918 161.348 138.918 161.164 138.918C160.98 138.779 161.348 138.918 161.164 138.918C161.164 138.918 161.164 138.918 160.98 138.918C160.796 138.918 161.164 138.918 160.98 138.918C160.98 138.918 160.98 138.918 160.796 138.918C160.612 138.918 160.98 138.918 160.796 138.918H160.612C160.612 138.918 160.796 138.779 160.612 138.918H160.428C160.428 138.918 160.428 138.918 160.244 139.057C160.06 139.195 160.244 138.918 160.244 139.057C160.244 139.057 160.244 139.057 160.244 139.195C160.244 139.334 160.244 139.057 160.244 139.195V139.334C160.244 139.334 160.244 139.195 160.244 139.334V139.473C160.244 139.473 160.244 139.473 160.244 139.612C160.244 139.612 160.244 139.473 160.244 139.612C160.244 139.612 160.428 139.751 160.244 139.751C160.244 139.751 160.06 139.612 160.244 139.751C160.244 139.751 160.244 139.89 160.428 139.89C160.428 140.028 160.244 139.751 160.428 139.89C160.428 139.89 160.428 139.89 160.428 140.028C160.612 140.167 160.428 140.028 160.428 140.028H160.612C160.612 140.028 160.428 140.028 160.612 140.028H160.796C160.612 140.028 160.612 140.028 160.796 140.028H160.98C161.164 140.028 160.98 140.028 160.98 140.028C160.98 140.028 161.164 140.028 161.348 140.028H161.532C161.532 140.028 161.532 140.028 161.716 140.028L161.9 139.89C161.716 140.028 161.9 139.89 161.9 139.89C161.9 139.89 161.9 139.89 161.9 139.751C161.9 139.751 162.084 139.612 161.9 139.751C161.9 139.612 161.9 139.612 162.084 139.473V139.334C162.084 139.473 162.084 139.334 162.084 139.334C162.084 139.195 162.084 139.195 162.084 139.057V138.918C162.084 139.057 162.084 138.918 162.084 138.918C162.084 138.779 162.084 138.779 161.9 138.64V138.501C161.9 138.363 161.9 138.501 161.9 138.501C161.9 138.363 161.716 138.363 161.716 138.224C161.716 138.224 161.716 138.085 161.532 138.085C161.532 138.085 161.716 138.224 161.532 138.085L161.348 137.946C161.532 137.946 161.348 137.946 161.348 137.946C161.164 137.807 161.532 137.946 161.348 137.946H161.164C160.98 137.946 161.348 137.946 161.164 137.946H160.98H160.796C160.612 137.946 160.98 137.946 160.796 137.946C160.612 137.946 160.612 137.946 160.428 138.085C160.428 138.085 160.612 138.085 160.428 138.085C160.428 138.085 160.244 138.085 160.244 138.224C160.244 138.224 160.244 138.224 160.06 138.224C159.876 138.363 160.244 138.085 160.06 138.224L159.876 138.363C159.692 138.501 159.876 138.224 159.876 138.363L159.692 138.501C159.692 138.501 159.692 138.501 159.692 138.64C159.692 138.779 159.692 138.64 159.692 138.64C159.692 138.64 159.692 138.779 159.508 138.918C159.508 139.057 159.508 139.057 159.508 139.195C159.508 139.195 159.508 139.195 159.508 139.057C159.508 139.057 159.508 139.057 159.508 139.195C159.508 139.195 159.508 139.195 159.508 139.334C159.508 139.473 159.508 139.473 159.508 139.612C159.508 139.751 159.508 139.473 159.508 139.612V139.751C159.508 139.751 159.508 140.028 159.692 140.028C159.692 140.028 159.692 139.89 159.692 140.028V140.167C159.692 140.167 159.692 140.167 159.692 140.306L159.876 140.445C159.692 140.445 159.692 140.445 159.876 140.445C159.876 140.445 160.06 140.445 160.06 140.584C160.06 140.584 159.876 140.584 160.06 140.584C160.06 140.584 160.06 140.584 160.244 140.584H160.428C160.612 140.584 160.428 140.584 160.428 140.584H160.612H160.796C160.98 140.584 160.98 140.584 160.796 140.584C160.796 140.584 160.796 140.584 160.98 140.584H161.164H161.348C161.348 140.584 161.164 140.584 161.348 140.584L161.532 140.445C161.532 140.445 161.348 140.584 161.532 140.445C161.532 140.445 161.532 140.445 161.716 140.445C161.716 140.445 161.716 140.445 161.716 140.306C161.716 140.445 161.716 140.445 161.716 140.306C161.716 140.306 161.716 140.306 161.716 140.167C161.716 140.167 161.716 140.028 161.716 140.167C161.716 140.306 161.716 140.167 161.716 140.167V140.028C161.716 139.89 161.716 140.167 161.716 140.028V139.89V139.751C161.716 139.612 161.716 139.89 161.716 139.751C161.716 139.612 161.532 139.612 161.532 139.612C161.532 139.751 161.532 139.751 161.532 139.612C161.348 139.473 161.532 139.612 161.532 139.612L161.348 139.473C161.164 139.473 161.532 139.473 161.348 139.473H161.164C160.98 139.473 161.164 139.473 161.164 139.473H160.98C160.796 139.473 160.98 139.473 160.98 139.473H160.796H160.612C160.796 139.473 160.612 139.473 160.612 139.473C160.06 139.612 159.508 139.89 158.772 139.89C158.404 139.89 157.853 139.612 158.037 139.334C158.221 137.807 158.588 137.391 159.14 137.391Z" fill="#192244"/>
<path d="M143.749 137.416C144.211 137.724 144.52 138.186 144.52 138.801C144.52 139.263 144.365 139.725 144.057 140.186C143.441 141.11 142.209 141.417 141.131 141.417C140.514 141.417 139.898 141.417 139.436 140.956C139.128 140.494 138.974 140.032 138.974 139.571C139.128 138.494 139.898 137.57 140.976 137.263C142.055 136.955 143.287 137.416 143.749 138.494C144.057 138.955 144.057 139.571 143.903 140.032C143.749 140.494 143.441 140.956 142.825 141.263C142.363 141.571 141.747 141.571 141.285 141.417C140.822 141.263 140.36 140.802 140.206 140.34C139.898 139.417 140.206 138.34 141.131 138.032C142.055 137.724 143.133 138.494 143.287 139.571C143.287 139.879 143.287 140.186 143.133 140.34C142.979 140.802 142.517 140.956 142.209 140.802C141.593 140.648 141.285 140.032 141.285 139.571C141.285 139.263 141.439 138.955 141.593 138.801C141.901 138.494 142.363 138.494 142.517 138.801C142.825 139.109 142.825 139.571 142.517 139.725C142.363 139.879 142.517 139.571 142.517 139.725C142.517 139.571 142.517 139.571 142.517 139.725C142.517 139.571 142.517 139.571 142.517 139.725C142.517 139.571 142.517 139.571 142.517 139.725C142.517 139.725 142.363 139.571 142.517 139.725C142.517 139.725 142.363 139.571 142.517 139.725C142.517 139.725 142.517 139.725 142.363 139.725C142.209 139.879 141.901 139.879 141.747 140.032C141.747 140.032 141.901 139.879 141.747 139.879C141.747 140.032 141.747 139.879 141.747 139.879C141.747 139.879 141.747 140.032 141.747 139.879C141.747 139.725 141.747 140.032 141.747 139.879C141.747 139.879 141.747 139.571 141.747 139.725C141.747 139.879 141.747 139.725 141.747 139.571L141.593 139.417C141.593 139.417 141.747 139.417 141.593 139.417C141.439 139.417 141.747 139.417 141.593 139.417C141.439 139.417 141.747 139.417 141.593 139.417C141.439 139.417 141.593 139.417 141.593 139.417H141.439C141.285 139.417 141.439 139.417 141.439 139.417C141.285 139.571 141.593 139.263 141.439 139.417C141.439 139.571 141.439 139.417 141.439 139.417V139.571C141.439 139.725 141.439 139.417 141.439 139.571C141.439 139.571 141.439 139.571 141.439 139.725V139.879C141.439 139.725 141.439 139.725 141.439 139.879C141.439 139.879 141.439 139.879 141.439 140.032C141.439 140.032 141.439 140.032 141.439 140.186C141.439 140.34 141.439 140.032 141.439 140.186C141.439 140.186 141.439 140.34 141.593 140.34C141.593 140.494 141.593 140.34 141.593 140.34C141.593 140.34 141.439 140.186 141.593 140.34C141.747 140.34 141.439 140.34 141.593 140.34C141.593 140.34 141.593 140.34 141.747 140.34C141.901 140.34 141.747 140.34 141.747 140.34H141.901C141.901 140.34 141.747 140.34 141.901 140.34C141.901 140.34 141.901 140.34 142.055 140.34C142.055 140.34 142.055 140.34 142.209 140.34C142.363 140.34 142.055 140.34 142.209 140.34L142.363 140.186C142.517 140.186 142.209 140.34 142.363 140.186C142.517 140.032 142.363 140.186 142.363 140.186L142.517 140.032C142.517 140.032 142.517 140.186 142.517 140.032C142.517 140.032 142.517 140.032 142.517 139.879V139.725C142.517 139.725 142.517 139.879 142.517 139.725V139.571C142.517 139.571 142.517 139.417 142.517 139.571C142.517 139.725 142.517 139.571 142.517 139.571V139.417C142.517 139.263 142.517 139.417 142.517 139.417V139.263C142.517 139.263 142.517 139.263 142.517 139.109C142.517 139.109 142.363 138.955 142.517 139.109C142.517 139.263 142.517 139.109 142.517 139.109C142.363 138.955 142.671 139.109 142.517 139.109L142.363 138.955C142.363 138.955 142.363 138.955 142.209 138.955C142.055 138.955 142.363 138.955 142.209 138.955H142.055C141.901 138.955 142.055 138.955 142.055 138.955H141.901H141.747C141.593 138.955 141.747 138.955 141.747 138.955H141.593C141.593 138.955 141.593 138.955 141.439 138.955C141.439 138.955 141.285 138.955 141.439 138.955C141.593 138.955 141.439 138.955 141.439 138.955H141.285C141.285 138.955 141.285 138.955 141.131 138.955L140.976 139.109L140.822 139.263C140.822 139.263 140.822 139.417 140.668 139.417C140.668 139.417 140.668 139.571 140.514 139.571C140.514 139.571 140.514 139.725 140.514 139.571C140.514 139.417 140.514 139.571 140.514 139.571V139.725C140.514 139.879 140.514 139.725 140.514 139.725V139.879V140.032C140.514 140.186 140.514 139.879 140.514 140.032C140.514 140.032 140.514 140.032 140.514 140.186V140.34C140.514 140.34 140.514 140.186 140.514 140.34C140.668 140.494 140.36 140.34 140.514 140.34H140.668C140.514 140.34 140.822 140.34 140.668 140.34C140.822 140.34 140.976 140.34 141.285 140.34C141.439 140.34 141.439 140.34 141.593 140.34C141.593 140.34 141.593 140.34 141.747 140.34C141.747 140.34 141.901 140.34 141.747 140.34C141.901 140.34 142.055 140.34 142.363 140.186C142.517 140.186 142.517 140.186 142.671 140.032C142.517 140.032 142.671 140.032 142.671 140.032H142.825H142.979L143.133 139.879C143.287 139.725 143.133 139.879 143.133 139.879V139.725C143.133 139.725 143.133 139.725 143.133 139.571V139.417V139.263C143.133 139.417 143.133 139.417 143.133 139.263V139.109C143.133 139.263 143.133 139.263 143.133 139.109V138.955C143.133 138.801 143.133 139.109 143.133 138.955C143.133 138.955 143.133 138.955 143.133 138.801C143.133 138.801 143.287 138.955 143.133 138.801C143.133 138.801 142.979 138.647 143.133 138.801C142.979 138.647 142.825 138.647 142.825 138.34C142.825 138.186 142.825 137.878 142.825 137.878C142.979 137.416 143.441 137.263 143.749 137.416Z" fill="#192244"/>
<path d="M167.781 130.338C166.394 129.415 164.7 128.799 163.005 128.491C162.235 128.337 161.311 128.337 160.541 128.337C160.078 128.337 159.77 128.337 159.308 128.337C159.154 128.337 158.846 128.337 158.692 128.491C158.538 128.491 158.538 128.491 158.384 128.491C158.23 128.645 158.23 128.491 158.384 128.184C158.846 128.953 157.614 129.569 157.152 128.953C156.843 128.491 156.997 128.03 157.306 127.568C157.768 127.26 158.23 127.106 158.692 127.106C159.77 126.952 161.003 126.952 162.081 127.106C164.392 127.414 166.548 128.03 168.551 129.261C169.167 129.569 168.551 130.8 167.781 130.338Z" fill="#192244"/>
<path d="M144.674 131.261C142.671 130.338 140.052 130.338 138.204 131.569C137.433 132.031 136.663 130.8 137.433 130.338C139.898 128.953 142.825 128.799 145.29 130.03C145.598 130.184 145.752 130.646 145.598 130.954C145.444 131.415 145.136 131.415 144.674 131.261Z" fill="#192244"/>
<path d="M163.313 153.574C163.159 156.19 161.773 158.652 159.616 160.037C157.151 161.576 154.07 161.73 151.452 160.807C150.681 160.499 150.989 159.114 151.76 159.422C154.07 160.191 156.689 160.037 158.692 158.806C160.54 157.729 161.773 155.575 161.927 153.42C161.927 152.651 163.313 152.651 163.313 153.574Z" fill="#192244"/>
<path d="M185.034 134.954C186.574 137.109 185.958 140.34 183.802 141.879C183.185 142.341 182.415 142.648 181.799 142.495C181.029 142.341 180.413 141.879 180.104 141.11C179.642 139.417 181.029 138.186 181.953 137.109C183.185 135.724 184.572 134.339 186.112 133.416C186.882 132.954 187.653 134.185 186.882 134.647C185.804 135.262 184.726 136.185 183.802 137.263C183.339 137.724 182.877 138.186 182.415 138.801C182.107 139.263 181.645 139.725 181.337 140.186C181.183 140.494 181.183 141.11 181.491 141.264C181.953 141.571 182.569 141.264 182.877 140.956C183.648 140.494 184.11 139.571 184.264 138.801C184.418 137.724 184.264 136.801 183.648 135.878C183.493 135.57 183.648 135.108 183.956 134.954C184.418 134.493 184.726 134.647 185.034 134.954Z" fill="#192244"/>
<path d="M250.812 0.769531H181.337C172.402 0.769531 165.162 8.00198 165.162 16.9271V39.8555C165.162 48.7807 172.402 56.0131 181.337 56.0131H186.574V79.8648L217.23 56.0131H250.812C259.747 56.0131 266.987 48.7807 266.987 39.8555V16.9271C266.987 8.00198 259.747 0.769531 250.812 0.769531Z" fill="white"/>
<path d="M250.812 1.38494C233.251 1.38494 215.843 1.38494 198.282 1.38494C194.123 1.38494 189.963 1.38494 185.804 1.38494C183.493 1.38494 181.183 1.23106 179.026 1.53882C171.324 2.76987 166.086 9.54068 165.932 17.0809C165.932 21.6973 165.932 26.3138 165.932 30.9303C165.932 36.1623 165.162 42.1636 167.627 46.7801C169.783 50.9349 173.788 54.0126 178.41 54.9358C181.029 55.3975 183.802 55.2436 186.574 55.2436C186.882 55.2436 187.345 55.5514 187.345 56.013C187.345 64.0149 187.345 71.8629 187.345 79.8647C186.882 79.7108 186.574 79.5569 186.112 79.4031C192.736 74.325 199.36 69.093 205.984 64.0149C209.219 61.3989 212.608 58.9368 215.843 56.3208C216.305 55.8591 216.768 55.5514 217.384 55.3975C218.462 55.2436 219.694 55.3975 220.773 55.3975C230.478 55.3975 240.183 55.3975 249.888 55.3975C256.05 55.3975 261.749 52.6276 264.676 46.934C266.833 42.6253 266.217 37.8549 266.217 33.2385C266.217 27.8526 266.217 22.6206 266.217 17.2348C266.217 8.61739 259.593 1.53882 250.812 1.38494C249.888 1.38494 249.888 0 250.812 0C258.514 0.153882 265.446 5.38587 267.295 13.08C268.219 17.2348 267.757 21.8512 267.757 26.1599C267.757 30.7764 267.757 35.239 267.757 39.8554C267.603 46.7801 263.598 53.0893 257.128 55.7052C253.277 57.2441 249.272 56.9363 245.266 56.9363C239.567 56.9363 233.713 56.9363 228.013 56.9363C224.47 56.9363 220.773 57.398 217.23 56.9363C217.692 56.9363 217.846 56.6285 217.384 57.0902C216.922 57.5518 216.459 57.8596 215.997 58.1674C214.303 59.3984 212.608 60.7834 211.068 62.0144C203.057 68.1697 195.047 74.325 187.191 80.6341C186.728 80.9419 185.958 80.788 185.958 80.1725C185.958 72.1706 185.958 64.3226 185.958 56.3208C186.112 56.6285 186.42 56.7824 186.574 57.0902C184.11 57.0902 181.645 57.2441 179.334 56.9363C175.637 56.4747 172.094 54.782 169.475 52.166C166.856 49.55 165.162 46.0107 164.7 42.3175C164.546 40.6248 164.546 38.9321 164.546 37.2394C164.546 31.6997 164.546 26.1599 164.546 20.6202C164.546 15.2343 165.008 10.1562 168.859 6.00139C172.248 1.6927 177.023 0 182.261 0C185.342 0 188.577 0 191.658 0C203.211 0 214.919 0 226.473 0C234.637 0 242.647 0 250.812 0C251.736 0 251.736 1.38494 250.812 1.38494Z" fill="#323F5A"/>
<path d="M239.258 37.0857C235.005 37.0857 231.556 33.6409 231.556 29.3916C231.556 25.1423 235.005 21.6975 239.258 21.6975C243.512 21.6975 246.961 25.1423 246.961 29.3916C246.961 33.6409 243.512 37.0857 239.258 37.0857Z" fill="#3F4FD3"/>
<path d="M216.151 37.0857C211.898 37.0857 208.449 33.6409 208.449 29.3916C208.449 25.1423 211.898 21.6975 216.151 21.6975C220.405 21.6975 223.854 25.1423 223.854 29.3916C223.854 33.6409 220.405 37.0857 216.151 37.0857Z" fill="#3F4FD3"/>
<path d="M193.044 37.0857C188.79 37.0857 185.342 33.6409 185.342 29.3916C185.342 25.1423 188.79 21.6975 193.044 21.6975C197.298 21.6975 200.747 25.1423 200.747 29.3916C200.747 33.6409 197.298 37.0857 193.044 37.0857Z" fill="#3F4FD3"/>
<g opacity="0.8">
<path opacity="0.5" d="M58.5614 121.567C64.2611 118.951 70.7311 118.643 76.893 118.181C83.671 117.72 90.295 117.566 97.0731 117.72C110.321 118.181 123.569 120.028 136.047 124.49C136.817 124.798 136.509 126.183 135.739 125.875C123.569 121.567 110.783 119.566 97.8433 119.105C91.5274 118.951 85.0575 118.951 78.7415 119.412C72.2716 119.72 65.3394 119.874 59.3316 122.644C58.4073 123.105 57.6371 122.028 58.5614 121.567Z" fill="#D6D8E5"/>
</g>
<g opacity="0.8">
<path opacity="0.5" d="M134.969 137.109C124.185 142.802 112.478 146.649 100.462 148.804C94.4543 149.881 88.2924 150.496 82.2846 150.804C76.4308 151.112 70.423 151.266 64.5692 150.035C58.7154 148.804 53.3238 145.572 50.5509 140.032C50.0888 139.263 51.3212 138.494 51.7833 139.263C55.3264 146.188 62.7206 148.804 70.1149 149.419C77.3551 150.035 84.7494 149.573 91.8355 148.804C106.624 147.111 121.104 142.956 134.352 136.032C135.123 135.57 135.739 136.647 134.969 137.109Z" fill="#D6D8E5"/>
</g>
<g opacity="0.5">
<path opacity="0.5" d="M40.0757 90.3286C56.5587 84.7888 73.1958 81.4034 90.6031 82.6345C105.546 83.7116 120.488 86.4815 134.506 91.8674C142.209 94.7911 149.757 98.6382 156.535 103.562C157.305 104.024 156.535 105.255 155.765 104.793C143.749 96.0222 129.577 90.7902 115.097 87.5587C99.8459 84.1733 83.825 82.6345 68.2663 84.7888C58.7154 86.1737 49.4726 88.7897 40.2297 91.7135C39.4595 92.0213 39.1514 90.6363 40.0757 90.3286Z" fill="#D6D8E5"/>
</g>
<path d="M166.394 285.605C167.01 295.607 168.243 305.456 169.783 315.304C169.937 316.227 168.705 316.535 168.397 315.612C168.243 314.996 168.089 314.381 168.089 313.919C167.935 312.996 169.167 312.688 169.475 313.611C169.629 314.227 169.783 314.842 169.783 315.304C169.321 315.458 168.859 315.612 168.397 315.612C166.856 305.61 165.624 295.607 165.008 285.605C165.008 284.682 166.394 284.682 166.394 285.605Z" fill="#192244"/>
<path d="M166.548 238.517C166.24 242.826 165.932 247.288 165.778 251.597C165.778 252.52 164.392 252.52 164.392 251.597C164.546 247.288 164.854 242.826 165.162 238.517C165.316 237.594 166.702 237.594 166.548 238.517Z" fill="#192244"/>
<path d="M170.4 206.971C170.091 209.125 169.629 211.126 169.321 213.28C169.321 213.588 168.859 213.896 168.397 213.742C167.935 213.588 167.781 213.28 167.935 212.819C168.243 210.664 168.551 208.664 169.013 206.509C169.013 206.202 169.475 205.894 169.937 206.048C170.4 206.202 170.554 206.663 170.4 206.971Z" fill="#192244"/>
<g opacity="0.8">
<g opacity="0.8">
<path opacity="0.8" d="M110.937 178.657C116.791 180.965 122.337 184.043 127.42 187.89C131.426 190.967 135.277 194.507 134.661 200.046C133.428 211.434 119.718 217.281 110.013 218.666C109.089 218.82 108.781 217.435 109.705 217.281C118.948 215.896 131.58 210.818 133.274 200.354C134.198 194.507 129.269 190.813 125.11 187.736C120.642 184.504 115.713 181.888 110.475 179.888C109.705 179.734 110.013 178.349 110.937 178.657Z" fill="#D6D8E5"/>
</g>
</g>
<g opacity="0.8">
<g opacity="0.8">
<path opacity="0.8" d="M114.326 198.046C106.932 198.661 99.3838 199.277 91.9896 198.815C85.3655 198.508 78.2794 197.584 72.4256 194.199C68.1123 191.737 63.4909 186.813 63.4909 181.427C63.4909 175.733 71.6553 174.348 75.8146 173.733C76.7389 173.579 76.7389 174.964 75.8146 175.118C73.1958 175.425 70.423 175.887 68.1123 177.272C66.8799 178.041 65.3394 179.118 65.0313 180.657C64.7232 182.196 65.3394 184.043 65.9556 185.428C68.2663 190.506 73.3499 193.737 78.5875 195.276C89.9869 198.815 102.773 197.43 114.48 196.507C115.251 196.661 115.251 198.046 114.326 198.046Z" fill="#D6D8E5"/>
</g>
</g>
<g opacity="0.8">
<g opacity="0.5">
<path opacity="0.5" d="M116.791 164.961C125.418 166.808 134.661 168.654 142.209 173.733C142.979 174.194 142.209 175.425 141.439 174.964C134.044 170.039 124.956 168.193 116.329 166.346C115.559 166.038 115.867 164.654 116.791 164.961Z" fill="white"/>
</g>
</g>
<path d="M97.8433 247.288C98.4595 248.519 99.8459 249.289 101.232 249.289H119.102C122.029 249.289 123.877 246.057 122.491 243.595L102.619 208.356C102.003 207.125 100.616 206.356 99.2297 206.356H81.8224C78.8955 206.356 77.0469 209.433 78.4334 212.049L83.3629 220.974C83.3629 220.974 87.8302 217.589 94.3002 218.512C94.3002 218.512 100.462 218.358 99.0757 221.898C99.2297 222.359 99.0757 224.514 92.2976 226.514C92.2976 226.514 89.6788 230.515 90.6031 232.67C90.6031 232.67 96.1488 230.669 98.4595 231.131C100.77 231.592 103.235 233.747 102.773 235.747C102.773 235.747 104.621 244.98 94.9164 245.288" fill="#3F4FD3"/>
<path d="M141.285 304.532C138.666 308.379 133.89 309.61 129.423 309.61C124.648 309.61 120.796 306.687 117.715 303.301C109.397 294.53 102.465 284.528 95.9948 274.525C89.3708 264.369 80.7441 254.521 78.8956 242.21C77.9713 236.363 78.2794 229.9 80.282 224.36C81.8225 220.359 85.0574 218.974 89.0627 218.512C91.8355 218.205 97.9974 216.974 99.846 220.051C100.924 222.052 99.0757 224.206 97.3812 225.129C95.8407 225.745 94.1462 225.899 92.9138 226.976C91.3734 228.207 90.295 230.515 91.2193 232.516C90.7572 232.669 90.295 232.823 89.9869 232.823C89.9869 231.285 93.8381 230.823 94.9165 230.515C97.8433 229.9 101.849 230.207 103.081 233.439C103.697 234.824 103.389 236.363 103.389 237.748C103.389 239.44 103.389 241.133 102.773 242.672C101.54 245.749 97.9974 246.365 95.0705 246.211C95.2245 245.749 95.3786 245.442 95.5326 244.98C103.081 252.059 110.475 259.291 117.561 266.677C117.099 266.831 116.791 266.831 116.329 266.985C116.945 263.138 117.561 259.291 118.178 255.444C118.332 254.521 119.718 254.982 119.564 255.752C118.948 259.599 118.332 263.446 117.715 267.293C117.561 267.755 116.945 267.908 116.483 267.601C109.397 260.214 102.003 252.982 94.4543 245.903C93.9922 245.442 94.3003 244.672 94.9165 244.672C97.3812 244.826 100.308 244.518 101.386 241.902C102.157 240.056 102.157 237.132 102.003 235.132C101.849 231.592 97.9974 231.131 95.2245 231.746C94.4543 231.9 93.8381 232.054 93.0679 232.208C92.7598 232.362 92.2977 232.362 91.9896 232.516C91.6815 232.669 91.3734 232.977 91.3734 232.516C91.3734 233.131 90.4491 233.439 90.141 232.823C88.6005 229.438 90.9112 225.745 94.1462 224.514C95.3786 224.052 97.0731 223.898 98.1514 222.821C99.5379 221.59 99.0757 220.051 97.3812 219.589C95.6867 218.974 93.53 219.128 91.6815 219.282C87.6762 219.589 83.3629 219.897 81.8225 224.36C79.8199 229.592 79.5118 235.901 80.436 241.441C82.1306 252.52 89.2167 260.676 95.0705 269.909C101.078 279.45 107.548 288.529 114.789 297.146C117.869 300.839 121.104 305.302 125.88 307.148C130.501 308.995 137.587 307.764 140.36 303.455C140.514 302.993 141.747 303.763 141.285 304.532Z" fill="#192244"/>
<path d="M193.661 102.793C187.653 96.1762 180.104 91.252 171.478 88.636C170.554 88.3282 171.016 87.0972 171.786 87.251C180.567 89.867 188.423 94.9451 194.585 101.716C195.201 102.485 194.277 103.409 193.661 102.793Z" fill="white"/>
<path d="M186.883 184.658C189.809 186.967 193.969 187.582 197.512 186.043C200.747 184.658 203.057 181.581 203.674 178.042C203.828 177.118 205.214 177.58 205.06 178.349C204.29 182.35 201.517 185.736 197.82 187.274C193.815 188.813 189.347 188.044 185.958 185.428C185.188 185.12 186.266 184.197 186.883 184.658Z" fill="white"/>
<path d="M95.0704 208.048C96.1488 208.048 97.3811 208.048 98.4595 208.048C99.3837 208.048 100.616 207.895 101.232 208.664C101.54 208.972 101.694 209.433 101.849 209.895C102.003 210.357 102.311 210.972 102.465 211.434C102.927 212.511 103.389 213.434 103.851 214.511C104.005 214.819 104.005 215.281 103.543 215.435C103.235 215.589 102.773 215.589 102.619 215.127C101.849 213.28 101.078 211.434 100.308 209.587C100.154 209.28 99.9999 209.126 99.6918 209.126C99.2297 209.126 98.7676 209.126 98.1514 209.126C97.073 209.126 96.1488 209.126 95.0704 209.126C94.1462 209.433 94.1462 208.048 95.0704 208.048Z" fill="white"/>
<g opacity="0.34">
<path d="M50.859 125.875C48.7024 126.953 47.9321 129.876 49.3186 131.877C49.4726 132.184 49.3186 132.646 49.0105 132.8C48.7024 132.954 48.2402 132.8 48.0862 132.492C46.2376 130.03 47.3159 125.875 50.0888 124.644C50.3969 124.49 50.859 124.49 51.0131 124.952C51.1671 125.26 51.1671 125.721 50.859 125.875Z" fill="#D6D8E5"/>
</g>
<g opacity="0.34">
<path d="M48.8564 104.948C45.9295 106.179 43.0027 106.948 39.9217 107.41C36.9948 107.717 33.9139 107.871 31.141 106.794C28.9844 105.871 27.1358 103.87 26.9818 101.408C26.8277 98.6384 28.8304 96.3302 30.6789 94.6375C32.8356 92.637 35.6084 91.0982 38.6894 90.9443C39.6136 90.9443 39.6136 92.3293 38.6894 92.3293C35.7625 92.3293 32.9896 94.022 30.987 96.1763C28.8304 98.3307 26.9818 101.562 29.4465 104.178C31.6032 106.486 35.1463 106.333 38.0732 106.179C41.4622 106.025 44.8512 105.101 48.0862 103.87C49.0105 103.409 49.6267 104.64 48.8564 104.948Z" fill="#D6D8E5"/>
</g>
<g opacity="0.5">
<g opacity="0.5">
<path opacity="0.5" d="M0.793783 148.958C1.10187 149.112 1.40997 149.112 1.71806 149.266C1.8721 149.266 2.02615 149.419 2.1802 149.573C2.1802 149.727 2.33423 149.727 2.33423 149.881C2.33423 150.035 2.33423 150.035 2.33423 150.189C2.33423 150.343 2.18019 150.497 2.02614 150.65C1.8721 150.804 1.71805 150.804 1.56401 150.65C1.25592 150.497 0.947841 150.497 0.639752 150.343C0.485708 150.343 0.331658 150.189 0.177614 150.035C0.177614 149.881 0.0235596 149.881 0.0235596 149.727C0.0235596 149.573 0.0235596 149.573 0.0235596 149.419C0.0235596 149.266 0.177599 149.112 0.331644 148.958C0.485689 148.958 0.639738 148.958 0.793783 148.958Z" fill="#D6D8E5"/>
</g>
</g>
<g opacity="0.3">
<g opacity="0.3">
<path opacity="0.3" d="M137.742 94.1758C141.747 95.253 145.444 97.2535 149.141 99.4078C153.3 101.716 157.46 104.486 161.003 107.564C164.238 110.333 167.473 114.642 166.548 119.105C165.47 124.644 159 125.722 154.225 126.029C145.752 126.491 137.433 124.798 129.269 123.106C128.345 122.952 128.807 121.567 129.577 121.721C136.047 123.106 142.671 124.337 149.295 124.644C153.916 124.798 162.235 125.26 164.546 120.182C166.702 115.719 162.543 110.949 159.308 108.179C156.073 105.409 152.376 102.947 148.525 100.793C144.982 98.7923 141.131 96.638 137.125 95.5608C136.509 95.253 136.971 94.022 137.742 94.1758Z" fill="white"/>
</g>
</g>
<path d="M152.068 137.724C152.684 140.032 152.376 142.341 152.222 144.649C152.068 145.572 151.914 146.495 151.914 147.419C151.914 147.726 151.914 148.034 151.914 148.342V148.496C151.914 148.65 151.914 148.496 151.914 148.496C151.914 148.496 152.068 148.65 151.914 148.65C151.914 148.65 152.068 148.65 151.914 148.65C152.068 148.65 151.914 148.65 151.914 148.65H152.068C152.222 148.65 152.376 148.65 152.53 148.65C153.146 148.496 153.608 148.342 154.071 148.034C154.841 147.573 155.611 148.804 154.841 149.265C153.916 149.727 152.992 150.189 151.914 150.035C151.144 149.881 150.681 149.265 150.527 148.65C150.373 147.726 150.527 146.957 150.527 146.034C150.681 144.803 150.836 143.726 150.99 142.494C151.144 141.11 151.144 139.571 150.681 138.186C150.527 137.263 151.914 136.955 152.068 137.724Z" fill="#192244"/>
</svg>
